Example survival plots
…
How to recreate the risk table in surv_miner.

Need to:

within strata

go through the sequence of time points to plot

find last time point relative to each break

round up if not exactly measured at that time point i.e. time = 8 becomes 10

td

# A tibble: 206 x 9
    time n.risk n.event n.censor estimate std.error conf.high conf.low
   <dbl>  <dbl>   <dbl>    <dbl>    <dbl>     <dbl>     <dbl>    <dbl>
 1    11    138       3        0    0.978    0.0127     1        0.954
 2    12    135       1        0    0.971    0.0147     0.999    0.943
 3    13    134       2        0    0.957    0.0181     0.991    0.923
 4    15    132       1        0    0.949    0.0197     0.987    0.913
 5    26    131       1        0    0.942    0.0211     0.982    0.904
 6    30    130       1        0    0.935    0.0225     0.977    0.894
 7    31    129       1        0    0.928    0.0238     0.972    0.885
 8    53    128       2        0    0.913    0.0263     0.961    0.867
 9    54    126       1        0    0.906    0.0275     0.956    0.858
10    59    125       1        0    0.899    0.0286     0.950    0.850
# … with 196 more rows, and 1 more variable: strata <chr>
…
Multi-state

# multi-state
fitCI <- survfit(Surv(stop, status * as.numeric(event), type = "mstate") ~ 1,
              data = mgus1, subset = (start == 0))
td_multi <- tidy(fitCI)
td_multi

# A tibble: 474 x 9
    time n.risk n.event n.censor estimate std.error conf.high conf.low
   <dbl>  <int>   <int>    <int>    <dbl>     <dbl>     <dbl>    <dbl>
 1     6      0       0        0        0         0        NA       NA
 2     7      0       0        0        0         0        NA       NA
 3    31      0       0        0        0         0        NA       NA
 4    32      0       0        0        0         0        NA       NA
 5    39      0       0        0        0         0        NA       NA
 6    60      0       0        0        0         0        NA       NA
 7    61      0       0        0        0         0        NA       NA
 8   152      0       0        0        0         0        NA       NA
 9   153      0       0        0        0         0        NA       NA
10   174      0       0        0        0         0        NA       NA
# … with 464 more rows, and 1 more variable: state <fct>
…
